{
  "template": {
    "tag": "cells-template-paper-drawer-panel",
    "properties": {
      "disableEdgeSwipe": true,
      "headerFixed": true
    }
  },
  "components": [
    {
      "zone": "app__header",
      "tag": "cells-component-app-header",
      "properties": {
        "text": "Realizar operación sobre la cuenta",
        "iconLeft": "back",
        "iconRight": "coronita:on",
        "cellsConnections": {
          "in": {

          },
          "out": {
            "ch_register_back" : {
              "bind": "left-button-pressed",
              "link":{
                  "page": "transactions"
                }
            },
            "ch_logout_operations" : {
              "bind": "right-button-pressed"
            }
          }
        }
      }
    },
    {
      "zone": "app__main",
      "familyPath": "../elements/operations-dm",
      "tag": "operations-dm",
      "properties": {
        "cellsConnections": {
          "in": {
            "ch_operations_request": {
              "bind": "doRequest"
            }
          },
          "out": {
            "ch_operations_request_ok" : {
              "bind": "operations-request-ok",
              "link": {
                "page": "transactions"
              }
            },
            "ch_operations_request_start" : {
              "bind": "operations-request-start"
            },
            "ch_operations_request_error" : {
              "bind": "operations-request-error"
            }
          }
        }
      }
    },
    {
      "zone": "app__main",
      "familyPath": "../elements/operations-page",
      "tag": "operations-page",
      "properties": {
        "cellsConnections": {
          "in": {
            "ch_operations": {
              "bind": "onOperation"
            },
            "ch_operations_request_error": {
              "bind": "onOperationError"
            }
          },
          "out": {
            "ch_operations_request": {
              "bind": "operation-request"
            }
          }
        }
      }
    },
    {
      "zone": "app__main",
      "familyPath": "../elements/logout-dm",
      "tag": "logout-dm",
      "properties": {
        "cellsConnections": {
          "in": {
            "ch_logout_operations" : {
              "bind": "doLogout"
            }
          },
          "out": {
            "ch_logout_operations_request_ok" : {
              "bind": "logout-request-ok",
              "link":{
                  "page": "login"
                }
            },
            "ch_logout_operations_request_error" : {
              "bind": "logout-request-error",
              "link":{
                  "page": "login"
                }
            },
            "ch_logout_operations_request_start" : {
              "bind": "logout-request-start"
            }
          }
        }
      }
    },
    {
      "zone": "app__main",
      "tag": "cells-molecule-spinner-veil",
      "properties": {
        "cellsConnections": {
          "in": {
            "ch_operations_request_start": {
              "bind": "show"
            },
            "ch_operations_request_ok": {
              "bind": "hide"
            },
            "ch_operations_request_error": {
              "bind": "hide"
            },
            "ch_logout_operations_request_start": {
              "bind": "show"
            },
            "ch_logout_operations_request_error": {
              "bind": "hide"
            },
            "ch_logout_operations_request_ok": {
              "bind": "hide"
            }
          },
          "out": {
          }
        }
      }
    }
  ]
}
